{
  "project_info": {
    "project_number": "463008243002",
    "firebase_url": "https://my-app-2af32.firebaseio.com",
    "project_id": "my-app-2af32",
    "storage_bucket": "my-app-2af32.appspot.com"
  },
  "client": [
    {
      "client_info": {
        "mobilesdk_app_id": "1:463008243002:android:86fa412193aeb1ff",
        "android_client_info": {
          "package_name": "com.english.finding.be"
        }
      },
      "oauth_client": [
        {
          "client_id": "463008243002-bvkkidrvdlsi5r3nuphqk7ia5a072f2s.apps.googleusercontent.com",
          "client_type": 3
        },
        {
          "client_id": "463008243002-bvkkidrvdlsi5r3nuphqk7ia5a072f2s.apps.googleusercontent.com",
          "client_type": 3
        }
      ],
      "api_key": [
        {
          "current_key": "AIzaSyC8cR0Fp4TPLw9jLcLxEg0iwD4bqhpIUZE"
        }
      ],
      "services": {
        "analytics_service": {
          "status": 1
        },
        "appinvite_service": {
          "status": 1,
          "other_platform_oauth_client": []
        },
        "ads_service": {
          "status": 2
        }
      }
    },
    {
      "client_info": {
        "mobilesdk_app_id": "1:463008243002:android:ca936c112430414d",
        "android_client_info": {
          "package_name": "com.englishgrammar.testapp.be"
        }
      },
      "oauth_client": [
        {
          "client_id": "463008243002-bvkkidrvdlsi5r3nuphqk7ia5a072f2s.apps.googleusercontent.com",
          "client_type": 3
        },
        {
          "client_id": "463008243002-bvkkidrvdlsi5r3nuphqk7ia5a072f2s.apps.googleusercontent.com",
          "client_type": 3
        }
      ],
      "api_key": [
        {
          "current_key": "AIzaSyC8cR0Fp4TPLw9jLcLxEg0iwD4bqhpIUZE"
        }
      ],
      "services": {
        "analytics_service": {
          "status": 1
        },
        "appinvite_service": {
          "status": 1,
          "other_platform_oauth_client": []
        },
        "ads_service": {
          "status": 2
        }
      }
    },
    {
      "client_info": {
        "mobilesdk_app_id": "1:463008243002:android:3293685ab79cead3",
        "android_client_info": {
          "package_name": "com.ielts.essay.be"
        }
      },
      "oauth_client": [
        {
          "client_id": "463008243002-bvkkidrvdlsi5r3nuphqk7ia5a072f2s.apps.googleusercontent.com",
          "client_type": 3
        },
        {
          "client_id": "463008243002-bvkkidrvdlsi5r3nuphqk7ia5a072f2s.apps.googleusercontent.com",
          "client_type": 3
        }
      ],
      "api_key": [
        {
          "current_key": "AIzaSyC8cR0Fp4TPLw9jLcLxEg0iwD4bqhpIUZE"
        }
      ],
      "services": {
        "analytics_service": {
          "status": 1
        },
        "appinvite_service": {
          "status": 1,
          "other_platform_oauth_client": []
        },
        "ads_service": {
          "status": 2
        }
      }
    },
    {
      "client_info": {
        "mobilesdk_app_id": "1:463008243002:android:39ebe1d61349d569",
        "android_client_info": {
          "package_name": "com.ielts.grammar.be"
        }
      },
      "oauth_client": [
        {
          "client_id": "463008243002-bvkkidrvdlsi5r3nuphqk7ia5a072f2s.apps.googleusercontent.com",
          "client_type": 3
        },
        {
          "client_id": "463008243002-bvkkidrvdlsi5r3nuphqk7ia5a072f2s.apps.googleusercontent.com",
          "client_type": 3
        }
      ],
      "api_key": [
        {
          "current_key": "AIzaSyC8cR0Fp4TPLw9jLcLxEg0iwD4bqhpIUZE"
        }
      ],
      "services": {
        "analytics_service": {
          "status": 1
        },
        "appinvite_service": {
          "status": 1,
          "other_platform_oauth_client": []
        },
        "ads_service": {
          "status": 2
        }
      }
    },
    {
      "client_info": {
        "mobilesdk_app_id": "1:463008243002:android:3ac98e38ca3dbdbc",
        "android_client_info": {
          "package_name": "com.ielts.vocabulary.be"
        }
      },
      "oauth_client": [
        {
          "client_id": "463008243002-bvkkidrvdlsi5r3nuphqk7ia5a072f2s.apps.googleusercontent.com",
          "client_type": 3
        },
        {
          "client_id": "463008243002-bvkkidrvdlsi5r3nuphqk7ia5a072f2s.apps.googleusercontent.com",
          "client_type": 3
        }
      ],
      "api_key": [
        {
          "current_key": "AIzaSyC8cR0Fp4TPLw9jLcLxEg0iwD4bqhpIUZE"
        }
      ],
      "services": {
        "analytics_service": {
          "status": 1
        },
        "appinvite_service": {
          "status": 1,
          "other_platform_oauth_client": []
        },
        "ads_service": {
          "status": 2
        }
      }
    },
    {
      "client_info": {
        "mobilesdk_app_id": "1:463008243002:android:6be504081ce50712",
        "android_client_info": {
          "package_name": "com.logical.test.be"
        }
      },
      "oauth_client": [
        {
          "client_id": "463008243002-bvkkidrvdlsi5r3nuphqk7ia5a072f2s.apps.googleusercontent.com",
          "client_type": 3
        },
        {
          "client_id": "463008243002-bvkkidrvdlsi5r3nuphqk7ia5a072f2s.apps.googleusercontent.com",
          "client_type": 3
        }
      ],
      "api_key": [
        {
          "current_key": "AIzaSyC8cR0Fp4TPLw9jLcLxEg0iwD4bqhpIUZE"
        }
      ],
      "services": {
        "analytics_service": {
          "status": 1
        },
        "appinvite_service": {
          "status": 1,
          "other_platform_oauth_client": []
        },
        "ads_service": {
          "status": 2
        }
      }
    }
  ],
  "configuration_version": "1"
}